{
    "rabbitmq" : {
        "host" : "localhost",
        "user" : "test",
        "pass" : "test"
    },

    
    "robot_name_prefix": "wmr",
    "robot_names" : [
        "001", "002", "003", "004", "005", "006", "007", "008", "009"
    ],



    
    "mqtt" : {
        "host" : "203.233.111.55",
        "port" : 5555,
        "Username" : "WRrobot",
        "Passwd" : "0372"
    },
    "robot" : {
        "rcsId" : "wrrobot-1",
        "robotId" : "robot-1"
    }


}

